----------------------------------------------------------------------------------------------------

/

.bowerrc ( Listo NV )
.gitignore ( Listo NV )
Bitacora VICMARO.txt NV ->
Gulpfile.js NV ->
README ( Listo NV )

----------------------------------------------------------------------------------------------------

/assets/

index.html ( Listo NV )

----------------------------------------------------------------------------------------------------

/assets/css/

app.scss NV ->
index.html ( Listo NV )

----------------------------------------------------------------------------------------------------

/assets/html/

app.html NV ->
index.html ( Listo NV )

----------------------------------------------------------------------------------------------------

/assets/images/

----------------------------------------------------------------------------------------------------

/assets/js/

app.js ( Listo NV )
index.html ( Listo NV )

----------------------------------------------------------------------------------------------------

/build/

index.html ( Listo NV )

----------------------------------------------------------------------------------------------------